vcd_files/datapath_tb.vcd
$date
	Sat Dec 30 22:51:06 2023
$end
$version
	Icarus Verilog
$end
$timescale
	1s
$end
$scope module datapath_tb $end
$var wire 128 ! cipher_text [127:0] $end
$var wire 1 " done $end
$var reg 1 # clk $end
$var reg 1 $ ctrl1 $end
$var reg 1 % ctrl2 $end
$var reg 1 & ctrl3 $end
$var reg 1 ' init $end
$var reg 128 ( key [127:0] $end
$var reg 128 ) plain_text [127:0] $end
$var reg 4 * rnd [3:0] $end
$scope module DUT $end
$var wire 128 + cipher_text [127:0] $end
$var wire 1 # clk $end
$var wire 1 $ ctrl1 $end
$var wire 1 % ctrl2 $end
$var wire 1 & ctrl3 $end
$var wire 1 " done $end
$var wire 1 ' init $end
$var wire 128 , key [127:0] $end
$var wire 128 - plain_text [127:0] $end
$var wire 4 . rnd [3:0] $end
$var wire 4 / rnd_in [3:0] $end
$var wire 128 0 sb_in [127:0] $end
$var wire 128 1 sr_in [127:0] $end
$var wire 128 2 sr_out [127:0] $end
$var wire 128 3 sb_out [127:0] $end
$var wire 4 4 mux3 [3:0] $end
$var wire 128 5 mux2 [127:0] $end
$var wire 128 6 mux1 [127:0] $end
$var wire 128 7 mc_out [127:0] $end
$var wire 128 8 mc_in [127:0] $end
$var wire 128 9 grk_out [127:0] $end
$var wire 128 : grk_in [127:0] $end
$var wire 128 ; ark_out [127:0] $end
$var wire 128 < ark_in [127:0] $end
$var reg 128 = ark2sb1 [127:0] $end
$var reg 128 > ark2sb2 [127:0] $end
$var reg 4 ? ark2sb3 [3:0] $end
$var reg 128 @ mc2ark1 [127:0] $end
$var reg 128 A mc2ark2 [127:0] $end
$var reg 4 B mc2ark3 [3:0] $end
$var reg 128 C sb2sr1 [127:0] $end
$var reg 128 D sb2sr2 [127:0] $end
$var reg 4 E sb2sr3 [3:0] $end
$var reg 128 F sr2mc1 [127:0] $end
$var reg 128 G sr2mc2 [127:0] $end
$var reg 4 H sr2mc3 [3:0] $end
$scope module ark $end
$var wire 128 I state_in [127:0] $end
$var wire 128 J state_out [127:0] $end
$var wire 128 K rnd_key [127:0] $end
$upscope $end
$scope module grk $end
$var wire 128 L key_in [127:0] $end
$var wire 4 M rnd [3:0] $end
$var wire 32 N rot_word [31:0] $end
$var wire 32 O sub_word [31:0] $end
$var reg 32 P g_func_out [31:0] $end
$var reg 128 Q key_out [127:0] $end
$var reg 32 R rcon [31:0] $end
$scope module s0 $end
$var wire 8 S byte_in [7:0] $end
$var wire 8 T byte_out [7:0] $end
$var reg 8 U temp_res [7:0] $end
$upscope $end
$scope module s1 $end
$var wire 8 V byte_in [7:0] $end
$var wire 8 W byte_out [7:0] $end
$var reg 8 X temp_res [7:0] $end
$upscope $end
$scope module s2 $end
$var wire 8 Y byte_in [7:0] $end
$var wire 8 Z byte_out [7:0] $end
$var reg 8 [ temp_res [7:0] $end
$upscope $end
$scope module s3 $end
$var wire 8 \ byte_in [7:0] $end
$var wire 8 ] byte_out [7:0] $end
$var reg 8 ^ temp_res [7:0] $end
$upscope $end
$upscope $end
$scope module mc $end
$var wire 128 _ state_in [127:0] $end
$var wire 128 ` state_out [127:0] $end
$var reg 128 a temp_res [127:0] $end
$scope begin genblk1[0] $end
$scope module mul_circuit $end
$var wire 8 b byte_in [7:0] $end
$var wire 8 c out_mul3 [7:0] $end
$var wire 8 d out_mul2 [7:0] $end
$upscope $end
$upscope $end
$scope begin genblk1[1] $end
$scope module mul_circuit $end
$var wire 8 e byte_in [7:0] $end
$var wire 8 f out_mul3 [7:0] $end
$var wire 8 g out_mul2 [7:0] $end
$upscope $end
$upscope $end
$scope begin genblk1[2] $end
$scope module mul_circuit $end
$var wire 8 h byte_in [7:0] $end
$var wire 8 i out_mul3 [7:0] $end
$var wire 8 j out_mul2 [7:0] $end
$upscope $end
$upscope $end
$scope begin genblk1[3] $end
$scope module mul_circuit $end
$var wire 8 k byte_in [7:0] $end
$var wire 8 l out_mul3 [7:0] $end
$var wire 8 m out_mul2 [7:0] $end
$upscope $end
$upscope $end
$scope begin genblk1[4] $end
$scope module mul_circuit $end
$var wire 8 n byte_in [7:0] $end
$var wire 8 o out_mul3 [7:0] $end
$var wire 8 p out_mul2 [7:0] $end
$upscope $end
$upscope $end
$scope begin genblk1[5] $end
$scope module mul_circuit $end
$var wire 8 q byte_in [7:0] $end
$var wire 8 r out_mul3 [7:0] $end
$var wire 8 s out_mul2 [7:0] $end
$upscope $end
$upscope $end
$scope begin genblk1[6] $end
$scope module mul_circuit $end
$var wire 8 t byte_in [7:0] $end
$var wire 8 u out_mul3 [7:0] $end
$var wire 8 v out_mul2 [7:0] $end
$upscope $end
$upscope $end
$scope begin genblk1[7] $end
$scope module mul_circuit $end
$var wire 8 w byte_in [7:0] $end
$var wire 8 x out_mul3 [7:0] $end
$var wire 8 y out_mul2 [7:0] $end
$upscope $end
$upscope $end
$scope begin genblk1[8] $end
$scope module mul_circuit $end
$var wire 8 z byte_in [7:0] $end
$var wire 8 { out_mul3 [7:0] $end
$var wire 8 | out_mul2 [7:0] $end
$upscope $end
$upscope $end
$scope begin genblk1[9] $end
$scope module mul_circuit $end
$var wire 8 } byte_in [7:0] $end
$var wire 8 ~ out_mul3 [7:0] $end
$var wire 8 !" out_mul2 [7:0] $end
$upscope $end
$upscope $end
$scope begin genblk1[10] $end
$scope module mul_circuit $end
$var wire 8 "" byte_in [7:0] $end
$var wire 8 #" out_mul3 [7:0] $end
$var wire 8 $" out_mul2 [7:0] $end
$upscope $end
$upscope $end
$scope begin genblk1[11] $end
$scope module mul_circuit $end
$var wire 8 %" byte_in [7:0] $end
$var wire 8 &" out_mul3 [7:0] $end
$var wire 8 '" out_mul2 [7:0] $end
$upscope $end
$upscope $end
$scope begin genblk1[12] $end
$scope module mul_circuit $end
$var wire 8 (" byte_in [7:0] $end
$var wire 8 )" out_mul3 [7:0] $end
$var wire 8 *" out_mul2 [7:0] $end
$upscope $end
$upscope $end
$scope begin genblk1[13] $end
$scope module mul_circuit $end
$var wire 8 +" byte_in [7:0] $end
$var wire 8 ," out_mul3 [7:0] $end
$var wire 8 -" out_mul2 [7:0] $end
$upscope $end
$upscope $end
$scope begin genblk1[14] $end
$scope module mul_circuit $end
$var wire 8 ." byte_in [7:0] $end
$var wire 8 /" out_mul3 [7:0] $end
$var wire 8 0" out_mul2 [7:0] $end
$upscope $end
$upscope $end
$scope begin genblk1[15] $end
$scope module mul_circuit $end
$var wire 8 1" byte_in [7:0] $end
$var wire 8 2" out_mul3 [7:0] $end
$var wire 8 3" out_mul2 [7:0] $end
$upscope $end
$upscope $end
$upscope $end
$scope module sb $end
$var wire 128 4" state_in [127:0] $end
$var wire 128 5" state_out [127:0] $end
$scope module sb0 $end
$var wire 8 6" byte_in [7:0] $end
$var wire 8 7" byte_out [7:0] $end
$var reg 8 8" temp_res [7:0] $end
$upscope $end
$scope module sb1 $end
$var wire 8 9" byte_in [7:0] $end
$var wire 8 :" byte_out [7:0] $end
$var reg 8 ;" temp_res [7:0] $end
$upscope $end
$scope module sb10 $end
$var wire 8 <" byte_in [7:0] $end
$var wire 8 =" byte_out [7:0] $end
$var reg 8 >" temp_res [7:0] $end
$upscope $end
$scope module sb11 $end
$var wire 8 ?" byte_in [7:0] $end
$var wire 8 @" byte_out [7:0] $end
$var reg 8 A" temp_res [7:0] $end
$upscope $end
$scope module sb12 $end
$var wire 8 B" byte_in [7:0] $end
$var wire 8 C" byte_out [7:0] $end
$var reg 8 D" temp_res [7:0] $end
$upscope $end
$scope module sb13 $end
$var wire 8 E" byte_in [7:0] $end
$var wire 8 F" byte_out [7:0] $end
$var reg 8 G" temp_res [7:0] $end
$upscope $end
$scope module sb14 $end
$var wire 8 H" byte_in [7:0] $end
$var wire 8 I" byte_out [7:0] $end
$var reg 8 J" temp_res [7:0] $end
$upscope $end
$scope module sb15 $end
$var wire 8 K" byte_in [7:0] $end
$var wire 8 L" byte_out [7:0] $end
$var reg 8 M" temp_res [7:0] $end
$upscope $end
$scope module sb2 $end
$var wire 8 N" byte_in [7:0] $end
$var wire 8 O" byte_out [7:0] $end
$var reg 8 P" temp_res [7:0] $end
$upscope $end
$scope module sb3 $end
$var wire 8 Q" byte_in [7:0] $end
$var wire 8 R" byte_out [7:0] $end
$var reg 8 S" temp_res [7:0] $end
$upscope $end
$scope module sb4 $end
$var wire 8 T" byte_in [7:0] $end
$var wire 8 U" byte_out [7:0] $end
$var reg 8 V" temp_res [7:0] $end
$upscope $end
$scope module sb5 $end
$var wire 8 W" byte_in [7:0] $end
$var wire 8 X" byte_out [7:0] $end
$var reg 8 Y" temp_res [7:0] $end
$upscope $end
$scope module sb6 $end
$var wire 8 Z" byte_in [7:0] $end
$var wire 8 [" byte_out [7:0] $end
$var reg 8 \" temp_res [7:0] $end
$upscope $end
$scope module sb7 $end
$var wire 8 ]" byte_in [7:0] $end
$var wire 8 ^" byte_out [7:0] $end
$var reg 8 _" temp_res [7:0] $end
$upscope $end
$scope module sb8 $end
$var wire 8 `" byte_in [7:0] $end
$var wire 8 a" byte_out [7:0] $end
$var reg 8 b" temp_res [7:0] $end
$upscope $end
$scope module sb9 $end
$var wire 8 c" byte_in [7:0] $end
$var wire 8 d" byte_out [7:0] $end
$var reg 8 e" temp_res [7:0] $end
$upscope $end
$upscope $end
$scope module sr $end
$var wire 128 f" state_in [127:0] $end
$var wire 128 g" state_out [127:0] $end
$var reg 128 h" temp_res [127:0] $end
$upscope $end
$upscope $end
$upscope $end
$enddefinitions $end
#0
$dumpvars
bx h"
bx g"
bx f"
bx e"
bx d"
bx c"
bx b"
bx a"
bx `"
bx _"
bx ^"
bx ]"
bx \"
bx ["
bx Z"
bx Y"
bx X"
bx W"
bx V"
bx U"
bx T"
bx S"
bx R"
bx Q"
bx P"
bx O"
bx N"
bx M"
bx L"
bx K"
bx J"
bx I"
bx H"
bx G"
bx F"
bx E"
bx D"
bx C"
bx B"
bx A"
bx @"
bx ?"
bx >"
bx ="
bx <"
bx ;"
bx :"
bx 9"
bx 8"
bx 7"
bx 6"
bx 5"
bx 4"
bx 3"
bx 2"
bx 1"
bx 0"
bx /"
bx ."
bx -"
bx ,"
bx +"
bx *"
bx )"
bx ("
bx '"
bx &"
bx %"
bx $"
bx #"
bx ""
bx !"
bx ~
bx }
bx |
bx {
bx z
bx y
bx x
bx w
bx v
bx u
bx t
bx s
bx r
bx q
bx p
bx o
bx n
bx m
bx l
bx k
bx j
bx i
bx h
bx g
bx f
bx e
bx d
bx c
bx b
bx a
bx `
bx _
bx ^
bx ]
bx \
bx [
bx Z
bx Y
bx X
bx W
bx V
bx U
bx T
bx S
bx R
bx Q
bx P
bx O
bx N
bx M
bx L
bx K
bx J
bx I
bx H
bx G
bx F
bx E
bx D
bx C
bx B
bx A
bx @
bx ?
bx >
bx =
bx <
bx ;
bx :
bx 9
bx 8
bx 7
bx 6
bx 5
bx 4
bx 3
bx 2
bx 1
bx 0
bx /
bx .
bx -
bx ,
bz +
bx *
bx )
bx (
0'
0&
0%
0$
0#
z"
bz !
$end
#5
1#
#10
0#
#15
1#
#20
0#
1'
#25
b0 7
b0 `
b0 a
b0 2
b0 g"
b0 h"
b1100011011000110110001101100011011000110110001101100011011000110110001101100011011000110110001101100011011000110110001101100011 6
b1100011011000110110001101100011011000110110001101100011011000110110001101100011011000110110001101100011011000110110001101100011 ;
b1100011011000110110001101100011011000110110001101100011011000110110001101100011011000110110001101100011011000110110001101100011 J
b1100011011000110110001101100011011000110110001101100011011000110110001101100011011000110110001101100011011000110110001101100011 5
b1100011011000110110001101100011011000110110001101100011011000110110001101100011011000110110001101100011011000110110001101100011 9
b1100011011000110110001101100011011000110110001101100011011000110110001101100011011000110110001101100011011000110110001101100011 K
b1100011011000110110001101100011011000110110001101100011011000110110001101100011011000110110001101100011011000110110001101100011 Q
b1100011011000110110001101100011 P
b1100011 T
b1100011 U
b1100011 W
b1100011 X
b1100011 Z
b1100011 [
b1100011011000110110001101100011 O
b1100011 ]
b1100011 ^
b0 S
b0 V
b0 Y
b0 \
b0 N
b0 d
b0 c
b0 g
b0 f
b0 j
b0 i
b0 m
b0 l
b0 p
b0 o
b0 s
b0 r
b0 v
b0 u
b0 y
b0 x
b0 |
b0 {
b0 !"
b0 ~
b0 $"
b0 #"
b0 '"
b0 &"
b0 *"
b0 )"
b0 -"
b0 ,"
b0 0"
b0 /"
b0 3"
b0 2"
b1100011 7"
b1100011 8"
b1100011 :"
b1100011 ;"
b1100011 O"
b1100011 P"
b1100011 R"
b1100011 S"
b1100011 U"
b1100011 V"
b1100011 X"
b1100011 Y"
b1100011 ["
b1100011 \"
b1100011 ^"
b1100011 _"
b1100011 a"
b1100011 b"
b1100011 d"
b1100011 e"
b1100011 ="
b1100011 >"
b1100011 @"
b1100011 A"
b1100011 C"
b1100011 D"
b1100011 F"
b1100011 G"
b1100011 I"
b1100011 J"
b1100011011000110110001101100011011000110110001101100011011000110110001101100011011000110110001101100011011000110110001101100011 3
b1100011011000110110001101100011011000110110001101100011011000110110001101100011011000110110001101100011011000110110001101100011 5"
b1100011 L"
b1100011 M"
b1 4
b0 R
b0 b
b0 e
b0 h
b0 k
b0 n
b0 q
b0 t
b0 w
b0 z
b0 }
b0 ""
b0 %"
b0 ("
b0 +"
b0 ."
b0 1"
b0 6"
b0 9"
b0 N"
b0 Q"
b0 T"
b0 W"
b0 Z"
b0 ]"
b0 `"
b0 c"
b0 <"
b0 ?"
b0 B"
b0 E"
b0 H"
b0 K"
b0 /
b0 M
b0 B
b0 :
b0 A
b0 L
b0 <
b0 @
b0 I
b0 H
b0 G
b0 8
b0 F
b0 _
b0 E
b0 D
b0 1
b0 f"
b0 C
b0 ?
b0 >
b0 0
b0 =
b0 4"
1#
#30
0#
#35
1#
#40
0#
#45
1#
#50
b10100011100100101000011001110100 5
b10010001000110011010001000101 6
0#
b1 *
b1 .
b10100011100100101000011001110100 (
b10100011100100101000011001110100 ,
b10010001000110011010001000101 )
b10010001000110011010001000101 -
1&
1%
1$
0'
#55
b1100011011000110110001101100011011000110110001101100011011000110110001101100011011000110110001101100011011000110110001101100011 2
b1100011011000110110001101100011011000110110001101100011011000110110001101100011011000110110001101100011011000110110001101100011 g"
b1100011011000110110001101100011011000110110001101100011011000110110001101100011011000110110001101100011011000110110001101100011 h"
b1101110 7"
b1101110 8"
b11000 :"
b11000 ;"
b100110 O"
b100110 P"
b1100011011000110110001101100011011000110110001101100011011000110110001101100011011000110110001111001001001001100001100001101110 3
b1100011011000110110001101100011011000110110001101100011011000110110001101100011011000110110001111001001001001100001100001101110 5"
b11001001 R"
b11001001 S"
b1000101 6"
b110100 9"
b100011 N"
b10010 Q"
b1100011011000110110001101100011011000110110001101100011011000110110001101100011011000110110001101100011011000110110001101100011 1
b1100011011000110110001101100011011000110110001101100011011000110110001101100011011000110110001101100011011000110110001101100011 f"
b1100011011000110110001101100011011000110110001101100011011000110110001101100011011000110110001101100011011000110110001101100011 C
b1 ?
b10100011100100101000011001110100 >
b10010001000110011010001000101 0
b10010001000110011010001000101 =
b10010001000110011010001000101 4"
1#
#60
b1100011011000110110001101100011011000110110001101100011011000110110001101100011011000110110001101100011011000110110001101100011 5
b1100011011000110110001101100011011000110110001101100011011000110110001101100011011000110110001101100011011000110110001101100011 6
0#
0&
0%
0$
#65
b1100011011000110110001101100011011000110110001101100011011000110110001101100011011000110110001101100011011000110110001101100011 7
b1100011011000110110001101100011011000110110001101100011011000110110001101100011011000110110001101100011011000110110001101100011 `
b1100011011000110110001101100011011000110110001101100011011000110110001101100011011000110110001101100011011000110110001101100011 a
b1100011011000110001100001100011011000110010011001100011011000111100100101100011011000110110001101100011011000110110001101101110 2
b1100011011000110001100001100011011000110010011001100011011000111100100101100011011000110110001101100011011000110110001101101110 g"
b1100011011000110001100001100011011000110010011001100011011000111100100101100011011000110110001101100011011000110110001101101110 h"
b10100101 c
b11000110 d
b10100101 f
b11000110 g
b10100101 i
b11000110 j
b10100101 l
b11000110 m
b10100101 o
b11000110 p
b10100101 r
b11000110 s
b10100101 u
b11000110 v
b10100101 x
b11000110 y
b10100101 {
b11000110 |
b10100101 ~
b11000110 !"
b10100101 #"
b11000110 $"
b10100101 &"
b11000110 '"
b10100101 )"
b11000110 *"
b10100101 ,"
b11000110 -"
b10100101 /"
b11000110 0"
b10100101 2"
b11000110 3"
b11111011 7"
b11111011 8"
b11111011 :"
b11111011 ;"
b11111011 O"
b11111011 P"
b11111011 R"
b11111011 S"
b11111011 U"
b11111011 V"
b11111011 X"
b11111011 Y"
b11111011 ["
b11111011 \"
b11111011 ^"
b11111011 _"
b11111011 a"
b11111011 b"
b11111011 d"
b11111011 e"
b11111011 ="
b11111011 >"
b11111011 @"
b11111011 A"
b11111011 C"
b11111011 D"
b11111011 F"
b11111011 G"
b11111011 I"
b11111011 J"
b11111011111110111111101111111011111110111111101111111011111110111111101111111011111110111111101111111011111110111111101111111011 3
b11111011111110111111101111111011111110111111101111111011111110111111101111111011111110111111101111111011111110111111101111111011 5"
b11111011 L"
b11111011 M"
b1100011 6"
b1100011 9"
b1100011 N"
b1100011 Q"
b1100011 T"
b1100011 W"
b1100011 Z"
b1100011 ]"
b1100011 `"
b1100011 c"
b1100011 <"
b1100011 ?"
b1100011 B"
b1100011 E"
b1100011 H"
b1100011 K"
b1100011 b
b1100011 e
b1100011 h
b1100011 k
b1100011 n
b1100011 q
b1100011 t
b1100011 w
b1100011 z
b1100011 }
b1100011 ""
b1100011 %"
b1100011 ("
b1100011 +"
b1100011 ."
b1100011 1"
b1100011011000110110001101100011011000110110001101100011011000110110001101100011011000110110001101100011011000110110001101100011 >
b1100011011000110110001101100011011000110110001101100011011000110110001101100011011000110110001101100011011000110110001101100011 0
b1100011011000110110001101100011011000110110001101100011011000110110001101100011011000110110001101100011011000110110001101100011 =
b1100011011000110110001101100011011000110110001101100011011000110110001101100011011000110110001101100011011000110110001101100011 4"
b1 E
b10100011100100101000011001110100 D
b1100011011000110110001101100011011000110110001101100011011000110110001101100011011000110110001111001001001001100001100001101110 1
b1100011011000110110001101100011011000110110001101100011011000110110001101100011011000110110001111001001001001100001100001101110 f"
b1100011011000110110001101100011011000110110001101100011011000110110001101100011011000110110001111001001001001100001100001101110 C
b1100011011000110110001101100011011000110110001101100011011000110110001101100011011000110110001101100011011000110110001101100011 8
b1100011011000110110001101100011011000110110001101100011011000110110001101100011011000110110001101100011011000110110001101100011 F
b1100011011000110110001101100011011000110110001101100011011000110110001101100011011000110110001101100011011000110110001101100011 _
1#
#70
0#
#75
b11000000110001001010111101110001001101110100110101100001001100010110010000110110010011100100101110100011011100110111001111001 7
b11000000110001001010111101110001001101110100110101100001001100010110010000110110010011100100101110100011011100110111001111001 `
b11000000110001001010111101110001001101110100110101100001001100010110010000110110010011100100101110100011011100110111001111001 a
b11111011111110111111101111111011111110111111101111111011111110111111101111111011111110111111101111111011111110111111101111111011 2
b11111011111110111111101111111011111110111111101111111011111110111111101111111011111110111111101111111011111110111111101111111011 g"
b11111011111110111111101111111011111110111111101111111011111110111111101111111011111110111111101111111011111110111111101111111011 h"
b10110010 c
b11011100 d
b10001001 y
b1000000 x
b1101010 #"
b1001100 $"
b101000 ,"
b110000 -"
b0 6
b0 ;
b0 J
b1101110 b
b11001001 w
b100110 ""
b11000 +"
b1100011011000110110001101100011011000110110001101100011011000110110001101100011011000110110001101100011011000110110001101100011 <
b1100011011000110110001101100011011000110110001101100011011000110110001101100011011000110110001101100011011000110110001101100011 @
b1100011011000110110001101100011011000110110001101100011011000110110001101100011011000110110001101100011011000110110001101100011 I
b1 H
b10100011100100101000011001110100 G
b1100011011000110001100001100011011000110010011001100011011000111100100101100011011000110110001101100011011000110110001101101110 8
b1100011011000110001100001100011011000110010011001100011011000111100100101100011011000110110001101100011011000110110001101101110 F
b1100011011000110001100001100011011000110010011001100011011000111100100101100011011000110110001101100011011000110110001101101110 _
b1100011011000110110001101100011011000110110001101100011011000110110001101100011011000110110001101100011011000110110001101100011 D
b11111011111110111111101111111011111110111111101111111011111110111111101111111011111110111111101111111011111110111111101111111011 1
b11111011111110111111101111111011111110111111101111111011111110111111101111111011111110111111101111111011111110111111101111111011 f"
b11111011111110111111101111111011111110111111101111111011111110111111101111111011111110111111101111111011111110111111101111111011 C
1#
#80
0#
#85
b11111011111110111111101111111011111110111111101111111011111110111111101111111011111110111111101111111011111110111111101111111011 7
b11111011111110111111101111111011111110111111101111111011111110111111101111111011111110111111101111111011111110111111101111111011 `
b11111011111110111111101111111011111110111111101111111011111110111111101111111011111110111111101111111011111110111111101111111011 a
b11101101 y
b11101101 d
b10110 c
b11101101 g
b10110 f
b11101101 j
b10110 i
b11101101 m
b10110 l
b11101101 p
b10110 o
b11101101 s
b10110 r
b11101101 v
b10110 u
b10110 x
b11101101 |
b10110 {
b11101101 !"
b10110 ~
b11101101 $"
b10110 #"
b11101101 '"
b10110 &"
b11101101 *"
b10110 )"
b11101101 -"
b10110 ,"
b11101101 0"
b10110 /"
b11101101 3"
b10110 2"
b1100011 7"
b1100011 8"
b1100011 :"
b1100011 ;"
b1100011 O"
b1100011 P"
b1100011 R"
b1100011 S"
b1100011 U"
b1100011 V"
b1100011 X"
b1100011 Y"
b1100011 ["
b1100011 \"
b1100011 ^"
b1100011 _"
b1100011 a"
b1100011 b"
b1100011 d"
b1100011 e"
b1100011 ="
b1100011 >"
b1100011 @"
b1100011 A"
b1100011 C"
b1100011 D"
b1100011 F"
b1100011 G"
b1100011 I"
b1100011 J"
b1100011011000110110001101100011011000110110001101100011011000110110001101100011011000110110001101100011011000110110001101100011 3
b1100011011000110110001101100011011000110110001101100011011000110110001101100011011000110110001101100011011000110110001101100011 5"
b1100011 L"
b1100011 M"
b11000001111100011110010100010111110000011111000111100101000101111100000111110001111001010001011111000001111100011110010100010111 5
b11011001111010010111000011111001111001110001100001001001001100011110110101110111001011001101111010110101100111111000101101101110 6
b0 6"
b0 9"
b0 N"
b0 Q"
b0 T"
b0 W"
b0 Z"
b0 ]"
b0 `"
b0 c"
b0 <"
b0 ?"
b0 B"
b0 E"
b0 H"
b0 K"
b11111011 b
b11111011 e
b11111011 h
b11111011 k
b11111011 n
b11111011 q
b11111011 t
b11111011 w
b11111011 z
b11111011 }
b11111011 ""
b11111011 %"
b11111011 ("
b11111011 +"
b11111011 ."
b11111011 1"
b10 4
b11000001111100011110010100010111110000011111000111100101000101111100000111110001111001010001011111000001111100011110010100010111 9
b11000001111100011110010100010111110000011111000111100101000101111100000111110001111001010001011111000001111100011110010100010111 K
b11000001111100011110010100010111110000011111000111100101000101111100000111110001111001010001011111000001111100011110010100010111 Q
b1100010011000110110001101100011 P
b1000000000000000000000000 R
b11011001111010010111000011111001111001110001100001001001001100011110110101110111001011001101111010110101100111111000101101101110 ;
b11011001111010010111000011111001111001110001100001001001001100011110110101110111001011001101111010110101100111111000101101101110 J
b0 0
b0 =
b0 4"
b1100011011000110110001101100011011000110110001101100011011000110110001101100011011000110110001101100011011000110110001101100011 G
b11111011111110111111101111111011111110111111101111111011111110111111101111111011111110111111101111111011111110111111101111111011 8
b11111011111110111111101111111011111110111111101111111011111110111111101111111011111110111111101111111011111110111111101111111011 F
b11111011111110111111101111111011111110111111101111111011111110111111101111111011111110111111101111111011111110111111101111111011 _
b1 /
b1 M
b1 B
b10100011100100101000011001110100 :
b10100011100100101000011001110100 A
b10100011100100101000011001110100 L
b11000000110001001010111101110001001101110100110101100001001100010110010000110110010011100100101110100011011100110111001111001 <
b11000000110001001010111101110001001101110100110101100001001100010110010000110110010011100100101110100011011100110111001111001 @
b11000000110001001010111101110001001101110100110101100001001100010110010000110110010011100100101110100011011100110111001111001 I
1#
#90
0#
#95
b1100011011000110110001101100011011000110110001101100011011000110110001101100011011000110110001101100011011000110110001101100011 2
b1100011011000110110001101100011011000110110001101100011011000110110001101100011011000110110001101100011011000110110001101100011 g"
b1100011011000110110001101100011011000110110001101100011011000110110001101100011011000110110001101100011011000110110001101100011 h"
b11111010111110111111101111111011 P
b11111011 T
b11111011 U
b11111011 W
b11111011 X
b11111011 Z
b11111011 [
b11111011111110111111101111111011 O
b11111011 ]
b11111011 ^
b1100011 S
b1100011 V
b1100011 Y
b1100011 \
b1100011011000110110001101100011 N
b11111010111110111111101111111011100110011001100010011000100110001111101011111011111110111111101110011001100110001001100010011000 5
b1000000000000000000000000011000100110001101100011011000110000000100000000000000000000000001100010011000110110001101100011 6
b10011111 7"
b10011111 8"
b111101 :"
b111101 ;"
b11011011 O"
b11011011 P"
b11010101 R"
b11010101 S"
b11101 U"
b11101 V"
b1110001 X"
b1110001 Y"
b11110101 ["
b11110101 \"
b1010101 ^"
b1010101 _"
b11000111 a"
b11000111 b"
b111011 d"
b111011 e"
b10101101 ="
b10101101 >"
b10010100 @"
b10010100 A"
b10011001 C"
b10011001 D"
b1010001 F"
b1010001 G"
b11110 I"
b11110 J"
b110101000111100101000110011001100101001010110100111011110001110101010111110101011100010001110111010101110110110011110110011111 3
b110101000111100101000110011001100101001010110100111011110001110101010111110101011100010001110111010101110110110011110110011111 5"
b110101 L"
b110101 M"
b11111010111110111111101111111011100110011001100010011000100110001111101011111011111110111111101110011001100110001001100010011000 9
b11111010111110111111101111111011100110011001100010011000100110001111101011111011111110111111101110011001100110001001100010011000 K
b11111010111110111111101111111011100110011001100010011000100110001111101011111011111110111111101110011001100110001001100010011000 Q
b1000000000000000000000000011000100110001101100011011000110000000100000000000000000000000001100010011000110110001101100011 ;
b1000000000000000000000000011000100110001101100011011000110000000100000000000000000000000001100010011000110110001101100011 J
b1101110 6"
b10001011 9"
b10011111 N"
b10110101 Q"
b11011110 T"
b101100 W"
b1110111 Z"
b11101101 ]"
b110001 `"
b1001001 c"
b11000 <"
b11100111 ?"
b11111001 B"
b1110000 E"
b11101001 H"
b11011001 K"
b1100011011000110110001101100011011000110110001101100011011000110110001101100011011000110110001101100011011000110110001101100011 :
b1100011011000110110001101100011011000110110001101100011011000110110001101100011011000110110001101100011011000110110001101100011 A
b1100011011000110110001101100011011000110110001101100011011000110110001101100011011000110110001101100011011000110110001101100011 L
b11111011111110111111101111111011111110111111101111111011111110111111101111111011111110111111101111111011111110111111101111111011 <
b11111011111110111111101111111011111110111111101111111011111110111111101111111011111110111111101111111011111110111111101111111011 @
b11111011111110111111101111111011111110111111101111111011111110111111101111111011111110111111101111111011111110111111101111111011 I
b1100011011000110110001101100011011000110110001101100011011000110110001101100011011000110110001101100011011000110110001101100011 1
b1100011011000110110001101100011011000110110001101100011011000110110001101100011011000110110001101100011011000110110001101100011 f"
b1100011011000110110001101100011011000110110001101100011011000110110001101100011011000110110001101100011011000110110001101100011 C
b10 ?
b11000001111100011110010100010111110000011111000111100101000101111100000111110001111001010001011111000001111100011110010100010111 >
b11011001111010010111000011111001111001110001100001001001001100011110110101110111001011001101111010110101100111111000101101101110 0
b11011001111010010111000011111001111001110001100001001001001100011110110101110111001011001101111010110101100111111000101101101110 =
b11011001111010010111000011111001111001110001100001001001001100011110110101110111001011001101111010110101100111111000101101101110 4"
1#
#100
0#
