vcd_files/toplevel_tb.vcd
$date
	Thu Jan 11 00:10:43 2024
$end
$version
	Icarus Verilog
$end
$timescale
	1s
$end
$scope module toplevel_tb $end
$var wire 1 ! done $end
$var wire 128 " cipher_text [127:0] $end
$var reg 1 # clk $end
$var reg 1 $ entr_new_pair_btn $end
$var reg 128 % key [127:0] $end
$var reg 128 & plain_text [127:0] $end
$var reg 1 ' rst $end
$var reg 1 ( strt_btn $end
$scope module DUT $end
$var wire 1 # clk $end
$var wire 1 $ entr_new_pair_btn $end
$var wire 128 ) key [127:0] $end
$var wire 128 * plain_text [127:0] $end
$var wire 1 ' rst $end
$var wire 1 ( strt_btn $end
$var wire 1 + ok2track $end
$var wire 1 , ok2subtrack $end
$var wire 1 - ok2load $end
$var wire 1 . ok2init $end
$var wire 1 / ok2compute $end
$var wire 1 0 ok2cmplt $end
$var wire 1 1 ok2addtrack $end
$var wire 4 2 mc2ark4_val [3:0] $end
$var wire 4 3 mc2ark3_val [3:0] $end
$var wire 1 ! done $end
$var wire 128 4 cipher_text [127:0] $end
$var wire 4 5 ark2sb4_val [3:0] $end
$scope module CTRL $end
$var wire 1 # clk $end
$var wire 1 $ enter_new_pair $end
$var wire 1 ' rst $end
$var wire 1 ( start $end
$var wire 1 + track_avlbl $end
$var wire 4 6 cur_mc2ark4_val [3:0] $end
$var wire 4 7 cur_mc2ark3_val [3:0] $end
$var wire 4 8 cur_ark2sb4_val [3:0] $end
$var wire 1 0 cmplt_sts $end
$var reg 1 1 do_add_track $end
$var reg 1 / do_compute $end
$var reg 1 - do_load $end
$var reg 1 , do_sub_track $end
$var reg 1 ! done $end
$var reg 1 . init $end
$var reg 4 9 next_state [3:0] $end
$var reg 4 : state [3:0] $end
$upscope $end
$scope module DPTH $end
$var wire 1 1 add_track $end
$var wire 1 # clk $end
$var wire 1 / compute $end
$var wire 4 ; cur_ark2sb4_val [3:0] $end
$var wire 4 < cur_mc2ark3_val [3:0] $end
$var wire 4 = cur_mc2ark4_val [3:0] $end
$var wire 1 - do_load $end
$var wire 4 > grk_rnd [3:0] $end
$var wire 1 . init $end
$var wire 128 ? key [127:0] $end
$var wire 4 @ mc_rnd [3:0] $end
$var wire 128 A plain_text [127:0] $end
$var wire 4 B rnd [3:0] $end
$var wire 128 C sb_in [127:0] $end
$var wire 128 D sr_in [127:0] $end
$var wire 1 , sub_track $end
$var wire 1 + track_avlbl $end
$var wire 128 E sr_out [127:0] $end
$var wire 128 F sb_out [127:0] $end
$var wire 4 G mux4 [3:0] $end
$var wire 4 H mux3 [3:0] $end
$var wire 128 I mux2 [127:0] $end
$var wire 128 J mux1 [127:0] $end
$var wire 128 K mc_out [127:0] $end
$var wire 128 L mc_in [127:0] $end
$var wire 128 M grk_out [127:0] $end
$var wire 128 N grk_in [127:0] $end
$var wire 4 O fb_ark2sb4 [3:0] $end
$var wire 4 P fb_ark2sb3 [3:0] $end
$var wire 128 Q fb_ark2sb2 [127:0] $end
$var wire 128 R fb_ark2sb1 [127:0] $end
$var wire 1 0 cmplt_sts $end
$var wire 128 S cipher_text [127:0] $end
$var wire 128 T ark_out [127:0] $end
$var wire 128 U ark_in [127:0] $end
$var reg 128 V ark2sb1 [127:0] $end
$var reg 128 W ark2sb2 [127:0] $end
$var reg 4 X ark2sb3 [3:0] $end
$var reg 4 Y ark2sb4 [3:0] $end
$var reg 128 Z mc2ark1 [127:0] $end
$var reg 128 [ mc2ark2 [127:0] $end
$var reg 4 \ mc2ark3 [3:0] $end
$var reg 4 ] mc2ark4 [3:0] $end
$var reg 4 ^ new_pair_id [3:0] $end
$var reg 128 _ sb2sr1 [127:0] $end
$var reg 128 ` sb2sr2 [127:0] $end
$var reg 4 a sb2sr3 [3:0] $end
$var reg 4 b sb2sr4 [3:0] $end
$var reg 128 c sr2mc1 [127:0] $end
$var reg 128 d sr2mc2 [127:0] $end
$var reg 4 e sr2mc3 [3:0] $end
$var reg 4 f sr2mc4 [3:0] $end
$var reg 4 g track [3:0] $end
$scope module ark $end
$var wire 128 h state_in [127:0] $end
$var wire 128 i state_out [127:0] $end
$var wire 128 j rnd_key [127:0] $end
$upscope $end
$scope module grk $end
$var wire 128 k key_in [127:0] $end
$var wire 4 l rnd [3:0] $end
$var wire 32 m rot_word [31:0] $end
$var wire 32 n sub_word [31:0] $end
$var reg 32 o g_func_out [31:0] $end
$var reg 128 p key_out [127:0] $end
$var reg 32 q rcon [31:0] $end
$scope module s0 $end
$var wire 8 r byte_in [7:0] $end
$var wire 8 s byte_out [7:0] $end
$var reg 8 t temp_res [7:0] $end
$upscope $end
$scope module s1 $end
$var wire 8 u byte_in [7:0] $end
$var wire 8 v byte_out [7:0] $end
$var reg 8 w temp_res [7:0] $end
$upscope $end
$scope module s2 $end
$var wire 8 x byte_in [7:0] $end
$var wire 8 y byte_out [7:0] $end
$var reg 8 z temp_res [7:0] $end
$upscope $end
$scope module s3 $end
$var wire 8 { byte_in [7:0] $end
$var wire 8 | byte_out [7:0] $end
$var reg 8 } temp_res [7:0] $end
$upscope $end
$upscope $end
$scope module mc $end
$var wire 4 ~ rnd [3:0] $end
$var wire 128 !" state_in [127:0] $end
$var wire 128 "" state_out [127:0] $end
$var reg 128 #" temp_res [127:0] $end
$scope begin genblk1[0] $end
$scope module mul_circuit $end
$var wire 8 $" byte_in [7:0] $end
$var wire 8 %" out_mul3 [7:0] $end
$var wire 8 &" out_mul2 [7:0] $end
$upscope $end
$upscope $end
$scope begin genblk1[1] $end
$scope module mul_circuit $end
$var wire 8 '" byte_in [7:0] $end
$var wire 8 (" out_mul3 [7:0] $end
$var wire 8 )" out_mul2 [7:0] $end
$upscope $end
$upscope $end
$scope begin genblk1[2] $end
$scope module mul_circuit $end
$var wire 8 *" byte_in [7:0] $end
$var wire 8 +" out_mul3 [7:0] $end
$var wire 8 ," out_mul2 [7:0] $end
$upscope $end
$upscope $end
$scope begin genblk1[3] $end
$scope module mul_circuit $end
$var wire 8 -" byte_in [7:0] $end
$var wire 8 ." out_mul3 [7:0] $end
$var wire 8 /" out_mul2 [7:0] $end
$upscope $end
$upscope $end
$scope begin genblk1[4] $end
$scope module mul_circuit $end
$var wire 8 0" byte_in [7:0] $end
$var wire 8 1" out_mul3 [7:0] $end
$var wire 8 2" out_mul2 [7:0] $end
$upscope $end
$upscope $end
$scope begin genblk1[5] $end
$scope module mul_circuit $end
$var wire 8 3" byte_in [7:0] $end
$var wire 8 4" out_mul3 [7:0] $end
$var wire 8 5" out_mul2 [7:0] $end
$upscope $end
$upscope $end
$scope begin genblk1[6] $end
$scope module mul_circuit $end
$var wire 8 6" byte_in [7:0] $end
$var wire 8 7" out_mul3 [7:0] $end
$var wire 8 8" out_mul2 [7:0] $end
$upscope $end
$upscope $end
$scope begin genblk1[7] $end
$scope module mul_circuit $end
$var wire 8 9" byte_in [7:0] $end
$var wire 8 :" out_mul3 [7:0] $end
$var wire 8 ;" out_mul2 [7:0] $end
$upscope $end
$upscope $end
$scope begin genblk1[8] $end
$scope module mul_circuit $end
$var wire 8 <" byte_in [7:0] $end
$var wire 8 =" out_mul3 [7:0] $end
$var wire 8 >" out_mul2 [7:0] $end
$upscope $end
$upscope $end
$scope begin genblk1[9] $end
$scope module mul_circuit $end
$var wire 8 ?" byte_in [7:0] $end
$var wire 8 @" out_mul3 [7:0] $end
$var wire 8 A" out_mul2 [7:0] $end
$upscope $end
$upscope $end
$scope begin genblk1[10] $end
$scope module mul_circuit $end
$var wire 8 B" byte_in [7:0] $end
$var wire 8 C" out_mul3 [7:0] $end
$var wire 8 D" out_mul2 [7:0] $end
$upscope $end
$upscope $end
$scope begin genblk1[11] $end
$scope module mul_circuit $end
$var wire 8 E" byte_in [7:0] $end
$var wire 8 F" out_mul3 [7:0] $end
$var wire 8 G" out_mul2 [7:0] $end
$upscope $end
$upscope $end
$scope begin genblk1[12] $end
$scope module mul_circuit $end
$var wire 8 H" byte_in [7:0] $end
$var wire 8 I" out_mul3 [7:0] $end
$var wire 8 J" out_mul2 [7:0] $end
$upscope $end
$upscope $end
$scope begin genblk1[13] $end
$scope module mul_circuit $end
$var wire 8 K" byte_in [7:0] $end
$var wire 8 L" out_mul3 [7:0] $end
$var wire 8 M" out_mul2 [7:0] $end
$upscope $end
$upscope $end
$scope begin genblk1[14] $end
$scope module mul_circuit $end
$var wire 8 N" byte_in [7:0] $end
$var wire 8 O" out_mul3 [7:0] $end
$var wire 8 P" out_mul2 [7:0] $end
$upscope $end
$upscope $end
$scope begin genblk1[15] $end
$scope module mul_circuit $end
$var wire 8 Q" byte_in [7:0] $end
$var wire 8 R" out_mul3 [7:0] $end
$var wire 8 S" out_mul2 [7:0] $end
$upscope $end
$upscope $end
$upscope $end
$scope module sb $end
$var wire 128 T" state_in [127:0] $end
$var wire 128 U" state_out [127:0] $end
$scope module sb0 $end
$var wire 8 V" byte_in [7:0] $end
$var wire 8 W" byte_out [7:0] $end
$var reg 8 X" temp_res [7:0] $end
$upscope $end
$scope module sb1 $end
$var wire 8 Y" byte_in [7:0] $end
$var wire 8 Z" byte_out [7:0] $end
$var reg 8 [" temp_res [7:0] $end
$upscope $end
$scope module sb10 $end
$var wire 8 \" byte_in [7:0] $end
$var wire 8 ]" byte_out [7:0] $end
$var reg 8 ^" temp_res [7:0] $end
$upscope $end
$scope module sb11 $end
$var wire 8 _" byte_in [7:0] $end
$var wire 8 `" byte_out [7:0] $end
$var reg 8 a" temp_res [7:0] $end
$upscope $end
$scope module sb12 $end
$var wire 8 b" byte_in [7:0] $end
$var wire 8 c" byte_out [7:0] $end
$var reg 8 d" temp_res [7:0] $end
$upscope $end
$scope module sb13 $end
$var wire 8 e" byte_in [7:0] $end
$var wire 8 f" byte_out [7:0] $end
$var reg 8 g" temp_res [7:0] $end
$upscope $end
$scope module sb14 $end
$var wire 8 h" byte_in [7:0] $end
$var wire 8 i" byte_out [7:0] $end
$var reg 8 j" temp_res [7:0] $end
$upscope $end
$scope module sb15 $end
$var wire 8 k" byte_in [7:0] $end
$var wire 8 l" byte_out [7:0] $end
$var reg 8 m" temp_res [7:0] $end
$upscope $end
$scope module sb2 $end
$var wire 8 n" byte_in [7:0] $end
$var wire 8 o" byte_out [7:0] $end
$var reg 8 p" temp_res [7:0] $end
$upscope $end
$scope module sb3 $end
$var wire 8 q" byte_in [7:0] $end
$var wire 8 r" byte_out [7:0] $end
$var reg 8 s" temp_res [7:0] $end
$upscope $end
$scope module sb4 $end
$var wire 8 t" byte_in [7:0] $end
$var wire 8 u" byte_out [7:0] $end
$var reg 8 v" temp_res [7:0] $end
$upscope $end
$scope module sb5 $end
$var wire 8 w" byte_in [7:0] $end
$var wire 8 x" byte_out [7:0] $end
$var reg 8 y" temp_res [7:0] $end
$upscope $end
$scope module sb6 $end
$var wire 8 z" byte_in [7:0] $end
$var wire 8 {" byte_out [7:0] $end
$var reg 8 |" temp_res [7:0] $end
$upscope $end
$scope module sb7 $end
$var wire 8 }" byte_in [7:0] $end
$var wire 8 ~" byte_out [7:0] $end
$var reg 8 !# temp_res [7:0] $end
$upscope $end
$scope module sb8 $end
$var wire 8 "# byte_in [7:0] $end
$var wire 8 ## byte_out [7:0] $end
$var reg 8 $# temp_res [7:0] $end
$upscope $end
$scope module sb9 $end
$var wire 8 %# byte_in [7:0] $end
$var wire 8 &# byte_out [7:0] $end
$var reg 8 '# temp_res [7:0] $end
$upscope $end
$upscope $end
$scope module sr $end
$var wire 128 (# state_in [127:0] $end
$var wire 128 )# state_out [127:0] $end
$var reg 128 *# temp_res [127:0] $end
$upscope $end
$upscope $end
$upscope $end
$upscope $end
$enddefinitions $end
#0
$dumpvars
bx *#
bx )#
bx (#
bx '#
bx &#
bx %#
bx $#
bx ##
bx "#
bx !#
bx ~"
bx }"
bx |"
bx {"
bx z"
bx y"
bx x"
bx w"
bx v"
bx u"
bx t"
bx s"
bx r"
bx q"
bx p"
bx o"
bx n"
bx m"
bx l"
bx k"
bx j"
bx i"
bx h"
bx g"
bx f"
bx e"
bx d"
bx c"
bx b"
bx a"
bx `"
bx _"
bx ^"
bx ]"
bx \"
bx ["
bx Z"
bx Y"
bx X"
bx W"
bx V"
bx U"
bx T"
bx S"
bx R"
bx Q"
bx P"
bx O"
bx N"
bx M"
bx L"
bx K"
bx J"
bx I"
bx H"
bx G"
bx F"
bx E"
bx D"
bx C"
bx B"
bx A"
bx @"
bx ?"
bx >"
bx ="
bx <"
bx ;"
bx :"
bx 9"
bx 8"
bx 7"
bx 6"
bx 5"
bx 4"
bx 3"
bx 2"
bx 1"
bx 0"
bx /"
bx ."
bx -"
bx ,"
bx +"
bx *"
bx )"
bx ("
bx '"
bx &"
bx %"
bx $"
bx #"
bx ""
bx !"
bx ~
bx }
bx |
bx {
bx z
bx y
bx x
bx w
bx v
bx u
bx t
bx s
bx r
bx q
bx p
bx o
bx n
bx m
bx l
bx k
bx j
bx i
bx h
bx g
bx f
bx e
bx d
bx c
bx b
bx a
bx `
bx _
bx ^
bx ]
bx \
bx [
bx Z
bx Y
bx X
bx W
bx V
bx U
bx T
bx S
bx R
bx Q
bx P
bx O
bx N
bx M
bx L
bx K
bx J
bx I
bx H
bx G
bx F
bx E
bx D
bx C
b1 B
bx A
bx @
bx ?
bx >
bx =
bx <
bx ;
bx :
b0 9
bx 8
bx 7
bx 6
bx 5
bx 4
bx 3
bx 2
x1
x0
x/
x.
x-
x,
x+
bx *
bx )
0(
0'
bx &
bx %
0$
0#
bx "
x!
$end
#5
1#
#10
b0 "
b0 4
b0 S
0!
0,
0/
0-
01
0.
b0 :
0#
#15
1#
#18
1'
#20
0#
#22
0'
#25
1#
#28
b1 9
b10101011101111001100110111011110 %
b10101011101111001100110111011110 )
b10101011101111001100110111011110 ?
b10010001000110011010001000101 &
b10010001000110011010001000101 *
b10010001000110011010001000101 A
1(
#30
1.
b10 9
b1 :
0#
#32
0(
#35
b0 E
b0 )#
b0 *#
b1100011011000110110001101100011011000110110001101100011011000110110001101100011011000110110001101100011011000110110001101100011 J
b1100011011000110110001101100011011000110110001101100011011000110110001101100011011000110110001101100011011000110110001101100011 R
b1100011011000110110001101100011011000110110001101100011011000110110001101100011011000110110001101100011011000110110001101100011 I
b1100011011000110110001101100011011000110110001101100011011000110110001101100011011000110110001101100011011000110110001101100011 T
b1100011011000110110001101100011011000110110001101100011011000110110001101100011011000110110001101100011011000110110001101100011 i
b1100011011000110110001101100011011000110110001101100011011000110110001101100011011000110110001101100011011000110110001101100011 Q
b1100011011000110110001101100011011000110110001101100011011000110110001101100011011000110110001101100011011000110110001101100011 M
b1100011011000110110001101100011011000110110001101100011011000110110001101100011011000110110001101100011011000110110001101100011 j
b1100011011000110110001101100011011000110110001101100011011000110110001101100011011000110110001101100011011000110110001101100011 p
b1100011011000110110001101100011 o
b1100011 s
b1100011 t
b1100011 v
b1100011 w
b1100011 y
b1100011 z
b1100011011000110110001101100011 n
b1100011 |
b1100011 }
b0 r
b0 u
b0 x
b0 {
b0 m
b0 &"
b0 %"
b0 )"
b0 ("
b0 ,"
b0 +"
b0 /"
b0 ."
b0 2"
b0 1"
b0 5"
b0 4"
b0 8"
b0 7"
b0 ;"
b0 :"
b0 >"
b0 ="
b0 A"
b0 @"
b0 D"
b0 C"
b0 G"
b0 F"
b0 J"
b0 I"
b0 M"
b0 L"
b0 P"
b0 O"
b0 S"
b0 R"
b1111 G
b1 H
b1100011 W"
b1100011 X"
b1100011 Z"
b1100011 ["
b1100011 o"
b1100011 p"
b1100011 r"
b1100011 s"
b1100011 u"
b1100011 v"
b1100011 x"
b1100011 y"
b1100011 {"
b1100011 |"
b1100011 ~"
b1100011 !#
b1100011 ##
b1100011 $#
b1100011 &#
b1100011 '#
b1100011 ]"
b1100011 ^"
b1100011 `"
b1100011 a"
b1100011 c"
b1100011 d"
b1100011 f"
b1100011 g"
b1100011 i"
b1100011 j"
b1100011011000110110001101100011011000110110001101100011011000110110001101100011011000110110001101100011011000110110001101100011 F
b1100011011000110110001101100011011000110110001101100011011000110110001101100011011000110110001101100011011000110110001101100011 U"
b1100011 l"
b1100011 m"
b1111 O
b1 P
b0 q
b0 K
b0 ""
b0 #"
b0 $"
b0 '"
b0 *"
b0 -"
b0 0"
b0 3"
b0 6"
b0 9"
b0 <"
b0 ?"
b0 B"
b0 E"
b0 H"
b0 K"
b0 N"
b0 Q"
b0 V"
b0 Y"
b0 n"
b0 q"
b0 t"
b0 w"
b0 z"
b0 }"
b0 "#
b0 %#
b0 \"
b0 _"
b0 b"
b0 e"
b0 h"
b0 k"
b0 ^
1+
10
b1111 g
b1111 2
b1111 6
b1111 =
b1111 ]
b0 3
b0 7
b0 <
b0 >
b0 l
b0 \
b0 N
b0 [
b0 k
b0 U
b0 Z
b0 h
b1111 f
b0 @
b0 ~
b0 e
b0 d
b0 L
b0 c
b0 !"
b1111 b
b0 a
b0 `
b0 D
b0 (#
b0 _
b1111 5
b1111 8
b1111 ;
b1111 Y
b0 X
b0 W
b0 C
b0 V
b0 T"
1#
#40
0.
b11 9
b10 :
0#
#45
1#
#50
11
b100 9
b11 :
0#
#55
00
b111 g
b1 ^
1#
#60
b10010001000110011010001000101 J
b10101011101111001100110111011110 I
b1 G
1-
01
b101 9
b100 :
0#
#65
b1101110 W"
b1101110 X"
b11000 Z"
b11000 ["
b100110 o"
b100110 p"
b1100011011000110110001101100011011000110110001101100011011000110110001101100011011000110110001111001001001001100001100001101110 F
b1100011011000110110001101100011011000110110001101100011011000110110001101100011011000110110001111001001001001100001100001101110 U"
b11001001 r"
b11001001 s"
b1000101 V"
b110100 Y"
b100011 n"
b10010 q"
b1 5
b1 8
b1 ;
b1 Y
b1 X
b10101011101111001100110111011110 W
b10010001000110011010001000101 C
b10010001000110011010001000101 V
b10010001000110011010001000101 T"
1#
#70
b1100011011000110110001101100011011000110110001101100011011000110110001101100011011000110110001101100011011000110110001101100011 J
b1100011011000110110001101100011011000110110001101100011011000110110001101100011011000110110001101100011011000110110001101100011 I
b1111 G
1/
0-
b101 :
0#
#75
b1100011011000110001100001100011011000110010011001100011011000111100100101100011011000110110001101100011011000110110001101101110 E
b1100011011000110001100001100011011000110010011001100011011000111100100101100011011000110110001101100011011000110110001101101110 )#
b1100011011000110001100001100011011000110010011001100011011000111100100101100011011000110110001101100011011000110110001101101110 *#
b11111011 W"
b11111011 X"
b11111011 Z"
b11111011 ["
b11111011 o"
b11111011 p"
b11111011 r"
b11111011 s"
b11111011 u"
b11111011 v"
b11111011 x"
b11111011 y"
b11111011 {"
b11111011 |"
b11111011 ~"
b11111011 !#
b11111011 ##
b11111011 $#
b11111011 &#
b11111011 '#
b11111011 ]"
b11111011 ^"
b11111011 `"
b11111011 a"
b11111011 c"
b11111011 d"
b11111011 f"
b11111011 g"
b11111011 i"
b11111011 j"
b11111011111110111111101111111011111110111111101111111011111110111111101111111011111110111111101111111011111110111111101111111011 F
b11111011111110111111101111111011111110111111101111111011111110111111101111111011111110111111101111111011111110111111101111111011 U"
b11111011 l"
b11111011 m"
b1100011 V"
b1100011 Y"
b1100011 n"
b1100011 q"
b1100011 t"
b1100011 w"
b1100011 z"
b1100011 }"
b1100011 "#
b1100011 %#
b1100011 \"
b1100011 _"
b1100011 b"
b1100011 e"
b1100011 h"
b1100011 k"
b1 b
b1 a
b10101011101111001100110111011110 `
b1100011011000110110001101100011011000110110001101100011011000110110001101100011011000110110001111001001001001100001100001101110 D
b1100011011000110110001101100011011000110110001101100011011000110110001101100011011000110110001111001001001001100001100001101110 (#
b1100011011000110110001101100011011000110110001101100011011000110110001101100011011000110110001111001001001001100001100001101110 _
b1111 5
b1111 8
b1111 ;
b1111 Y
b1100011011000110110001101100011011000110110001101100011011000110110001101100011011000110110001101100011011000110110001101100011 W
b1100011011000110110001101100011011000110110001101100011011000110110001101100011011000110110001101100011011000110110001101100011 C
b1100011011000110110001101100011011000110110001101100011011000110110001101100011011000110110001101100011011000110110001101100011 V
b1100011011000110110001101100011011000110110001101100011011000110110001101100011011000110110001101100011011000110110001101100011 T"
1#
#78
b10 9
b10101011110011011110111110101011 %
b10101011110011011110111110101011 )
b10101011110011011110111110101011 ?
b1100111011110001000100110010001 &
b1100111011110001000100110010001 *
b1100111011110001000100110010001 A
1$
#80
0/
b11 9
b10 :
0#
#82
0$
#85
1#
#90
11
b100 9
b11 :
0#
#95
b11 g
b10 ^
1#
#100
b1100111011110001000100110010001 J
b10101011110011011110111110101011 I
b10 G
1-
01
b101 9
b100 :
0#
#105
b10000001 W"
b10000001 X"
b10100111 Z"
b10100111 ["
b10111100 o"
b10111100 p"
b10000101 r"
b10000101 s"
b1100011 u"
b1100011 v"
b1100011 x"
b1100011 y"
b1100011 {"
b1100011 |"
b1100011 ~"
b1100011 !#
b1100011 ##
b1100011 $#
b1100011 &#
b1100011 '#
b1100011 ]"
b1100011 ^"
b1100011 `"
b1100011 a"
b1100011 c"
b1100011 d"
b1100011 f"
b1100011 g"
b1100011 i"
b1100011 j"
b1100011011000110110001101100011011000110110001101100011011000110110001101100011011000110110001110000101101111001010011110000001 F
b1100011011000110110001101100011011000110110001101100011011000110110001101100011011000110110001110000101101111001010011110000001 U"
b1100011 l"
b1100011 m"
b10010001 V"
b10001001 Y"
b1111000 n"
b1100111 q"
b0 t"
b0 w"
b0 z"
b0 }"
b0 "#
b0 %#
b0 \"
b0 _"
b0 b"
b0 e"
b0 h"
b0 k"
b10 5
b10 8
b10 ;
b10 Y
b10101011110011011110111110101011 W
b1100111011110001000100110010001 C
b1100111011110001000100110010001 V
b1100111011110001000100110010001 T"
1#
#110
b1100011011000110110001101100011011000110110001101100011011000110110001101100011011000110110001101100011011000110110001101100011 J
b1100011011000110110001101100011011000110110001101100011011000110110001101100011011000110110001101100011011000110110001101100011 I
b1111 G
1/
0-
b101 :
0#
#115
b11000000110001001010111101110001001101110100110101100001001100010110010000110110010011100100101110100011011100110111001111001 K
b11000000110001001010111101110001001101110100110101100001001100010110010000110110010011100100101110100011011100110111001111001 ""
b11000000110001001010111101110001001101110100110101100001001100010110010000110110010011100100101110100011011100110111001111001 #"
b1100011011000111010011101100011011000111011110001100011011000111000010101100011011000110110001101100011011000110110001110000001 E
b1100011011000111010011101100011011000111011110001100011011000111000010101100011011000110110001101100011011000110110001110000001 )#
b1100011011000111010011101100011011000111011110001100011011000111000010101100011011000110110001101100011011000110110001110000001 *#
b10110010 %"
b11011100 &"
b10100101 ("
b11000110 )"
b10100101 +"
b11000110 ,"
b10100101 ."
b11000110 /"
b10100101 1"
b11000110 2"
b10100101 4"
b11000110 5"
b10100101 7"
b11000110 8"
b10001001 ;"
b1000000 :"
b10100101 ="
b11000110 >"
b10100101 @"
b11000110 A"
b1101010 C"
b1001100 D"
b10100101 F"
b11000110 G"
b10100101 I"
b11000110 J"
b101000 L"
b110000 M"
b10100101 O"
b11000110 P"
b10100101 R"
b11000110 S"
b11111011 W"
b11111011 X"
b11111011 Z"
b11111011 ["
b11111011 o"
b11111011 p"
b11111011 r"
b11111011 s"
b11111011 u"
b11111011 v"
b11111011 x"
b11111011 y"
b11111011 {"
b11111011 |"
b11111011 ~"
b11111011 !#
b11111011 ##
b11111011 $#
b11111011 &#
b11111011 '#
b11111011 ]"
b11111011 ^"
b11111011 `"
b11111011 a"
b11111011 c"
b11111011 d"
b11111011 f"
b11111011 g"
b11111011 i"
b11111011 j"
b11111011111110111111101111111011111110111111101111111011111110111111101111111011111110111111101111111011111110111111101111111011 F
b11111011111110111111101111111011111110111111101111111011111110111111101111111011111110111111101111111011111110111111101111111011 U"
b11111011 l"
b11111011 m"
b1101110 $"
b1100011 '"
b1100011 *"
b1100011 -"
b1100011 0"
b1100011 3"
b1100011 6"
b11001001 9"
b1100011 <"
b1100011 ?"
b100110 B"
b1100011 E"
b1100011 H"
b11000 K"
b1100011 N"
b1100011 Q"
b1100011 V"
b1100011 Y"
b1100011 n"
b1100011 q"
b1100011 t"
b1100011 w"
b1100011 z"
b1100011 }"
b1100011 "#
b1100011 %#
b1100011 \"
b1100011 _"
b1100011 b"
b1100011 e"
b1100011 h"
b1100011 k"
b1 f
b1 @
b1 ~
b1 e
b10101011101111001100110111011110 d
b1100011011000110001100001100011011000110010011001100011011000111100100101100011011000110110001101100011011000110110001101101110 L
b1100011011000110001100001100011011000110010011001100011011000111100100101100011011000110110001101100011011000110110001101101110 c
b1100011011000110001100001100011011000110010011001100011011000111100100101100011011000110110001101100011011000110110001101101110 !"
b10 b
b10101011110011011110111110101011 `
b1100011011000110110001101100011011000110110001101100011011000110110001101100011011000110110001110000101101111001010011110000001 D
b1100011011000110110001101100011011000110110001101100011011000110110001101100011011000110110001110000101101111001010011110000001 (#
b1100011011000110110001101100011011000110110001101100011011000110110001101100011011000110110001110000101101111001010011110000001 _
b1111 5
b1111 8
b1111 ;
b1111 Y
b1100011011000110110001101100011011000110110001101100011011000110110001101100011011000110110001101100011011000110110001101100011 W
b1100011011000110110001101100011011000110110001101100011011000110110001101100011011000110110001101100011011000110110001101100011 C
b1100011011000110110001101100011011000110110001101100011011000110110001101100011011000110110001101100011011000110110001101100011 V
b1100011011000110110001101100011011000110110001101100011011000110110001101100011011000110110001101100011011000110110001101100011 T"
1#
#120
0#
#125
b11111011111110111111101111111011111110111111101111111011111110111111101111111011111110111111101111111011111110111111101111111011 E
b11111011111110111111101111111011111110111111101111111011111110111111101111111011111110111111101111111011111110111111101111111011 )#
b11111011111110111111101111111011111110111111101111111011111110111111101111111011111110111111101111111011111110111111101111111011 *#
b10100111101001111111000000110100101111001100011000011001101111001011010001010010100001011000010101011110100000011000000110111100 K
b10100111101001111111000000110100101111001100011000011001101111001011010001010010100001011000010101011110100000011000000110111100 ""
b10100111101001111111000000110100101111001100011000011001101111001011010001010010100001011000010101011110100000011000000110111100 #"
b10001 ;"
b11001 &"
b10011000 %"
b10010100 :"
b1100011 D"
b11011111 C"
b1010101 M"
b11110010 L"
b11001001110111111010111010111101110010011101111110101110101111011100100111011111101011101011110111001001110111111010111010111101 I
b11010001110001110011101101010011111011110011011000000010100110111110010101011001011001110111010010111101101100011100000011000100 J
b1 G
b10 H
b11001001110111111010111010111101110010011101111110101110101111011100100111011111101011101011110111001001110111111010111010111101 Q
b11010001110001110011101101010011111011110011011000000010100110111110010101011001011001110111010010111101101100011100000011000100 R
b10000001 $"
b10000101 9"
b10111100 B"
b10100111 K"
b1 O
b10 P
b11001001110111111010111010111101110010011101111110101110101111011100100111011111101011101011110111001001110111111010111010111101 M
b11001001110111111010111010111101110010011101111110101110101111011100100111011111101011101011110111001001110111111010111010111101 j
b11001001110111111010111010111101110010011101111110101110101111011100100111011111101011101011110111001001110111111010111010111101 p
b1100010011000110110001101100011 o
b1000000000000000000000000 q
b11010001110001110011101101010011111011110011011000000010100110111110010101011001011001110111010010111101101100011100000011000100 T
b11010001110001110011101101010011111011110011011000000010100110111110010101011001011001110111010010111101101100011100000011000100 i
b1111 b
b1100011011000110110001101100011011000110110001101100011011000110110001101100011011000110110001101100011011000110110001101100011 `
b11111011111110111111101111111011111110111111101111111011111110111111101111111011111110111111101111111011111110111111101111111011 D
b11111011111110111111101111111011111110111111101111111011111110111111101111111011111110111111101111111011111110111111101111111011 (#
b11111011111110111111101111111011111110111111101111111011111110111111101111111011111110111111101111111011111110111111101111111011 _
b10 f
b10101011110011011110111110101011 d
b1100011011000111010011101100011011000111011110001100011011000111000010101100011011000110110001101100011011000110110001110000001 L
b1100011011000111010011101100011011000111011110001100011011000111000010101100011011000110110001101100011011000110110001110000001 c
b1100011011000111010011101100011011000111011110001100011011000111000010101100011011000110110001101100011011000110110001110000001 !"
b1 2
b1 6
b1 =
b1 ]
b1 3
b1 7
b1 <
b1 >
b1 l
b1 \
b10101011101111001100110111011110 N
b10101011101111001100110111011110 [
b10101011101111001100110111011110 k
b11000000110001001010111101110001001101110100110101100001001100010110010000110110010011100100101110100011011100110111001111001 U
b11000000110001001010111101110001001101110100110101100001001100010110010000110110010011100100101110100011011100110111001111001 Z
b11000000110001001010111101110001001101110100110101100001001100010110010000110110010011100100101110100011011100110111001111001 h
1#
#130
0#
